vignette for descfars package in Fatality Analysis Reporting System (FARS) 2012-2015
…
## Warning: `select_()` was deprecated in dplyr 0.7.0.
## Please use `select()` instead.
## This warning is displayed once every 8 hours.
## Call `lifecycle::last_lifecycle_warnings()` to see where this warning was generated.

## Warning: `mutate_()` was deprecated in dplyr 0.7.0.
## Please use `mutate()` instead.
## See vignette('programming') for more help
## This warning is displayed once every 8 hours.
## Call `lifecycle::last_lifecycle_warnings()` to see where this warning was generated.

## [[1]]
## # A tibble: 32,166 x 2
##    MONTH  year
##    <dbl> <dbl>
##  1     1  2015
##  2     1  2015
##  3     1  2015
##  4     1  2015
##  5     1  2015
##  6     1  2015
##  7     1  2015
##  8     1  2015
##  9     1  2015
## 10     1  2015
## # ... with 32,156 more rows
## # i Use `print(n = ...)` to see more rows
…
